# 3ds Max Wavefront OBJ Exporter v0.94b - (c)2007 guruware
# File Created: 12.09.2010 01:40:48

newmtl _1___Default
	Ns 10.0830
	Ni 1.5000
	d 1.0000
	Tr 1.0000
	Tf 1.0000 1.0000 1.0000 
	illum 2
	Ka 0.0000 0.0000 0.0000
	Kd 1.0000 1.0000 1.0000
	Ks 0.0000 0.0000 0.0000
	Ke 0.0000 0.0000 0.0000
	map_Kd soccer_ball_colors_edit.png
	map_bump soccer_ball_zbump.png
	bump soccer_ball_zbump.png
